ALU/SUB/transcript
# Compile of TEST_OR.v was successful.
# Compile of OR.v was successful.
# Compile of SET_FLAG.v was successful.
# 3 compiles, 0 failed with no errors.
vsim work.TEST_OR
# vsim work.TEST_OR 
# Start time: 11:13:06 on Nov 16,2020
# Loading work.TEST_OR
# Loading work.OR
# Loading work.SET_FLAG
# ** Warning: (vsim-3015) [PCDPC] - Port size (1) does not match connection size (4) for port 'New_Flag'. The port definition is at: D:/Documents/GitHub/ENGR_468_Project/ALU/OR/OR.v(1).
#    Time: 0 ps  Iteration: 0  Instance: /TEST_OR/or1 File: D:/Documents/GitHub/ENGR_468_Project/ALU/OR/TEST_OR.v Line: 22
# ** Warning: (vsim-3015) [PCDPC] - Port size (4) does not match connection size (1) for port 'New_Flag'. The port definition is at: D:/Documents/GitHub/ENGR_468_Project/ALU/SET_FLAG/SET_FLAG.v(1).
#    Time: 0 ps  Iteration: 0  Instance: /TEST_OR/or1/set File: D:/Documents/GitHub/ENGR_468_Project/ALU/OR/OR.v Line: 12
run -all
#                    0 In1.=00000000000000000000000000000010, In2.=00000000000000000000000000000011, Result=00000000000000000000000000000011, Flag=zzz0
#                   10 In1.=00000000000000000000000000000001, In2.=11111111111111111111111111111101, Result=11111111111111111111111111111101, Flag=zzz0
#                   20 In1.=11111111111111111111111111111010, In2.=11111111111111111111111111111110, Result=11111111111111111111111111111110, Flag=zzz0
#                   30 In1.=11111111111111111111111111111111, In2.=00000000000000000000000000001001, Result=11111111111111111111111111111111, Flag=zzz0
#                   40 In1.=10101010101010101010101010101010, In2.=00000000111111111100000000000000, Result=10101010111111111110101010101010, Flag=zzz0
#                   50 In1.=00000000000000000000000000101101, In2.=11111111111111111111111111010011, Result=11111111111111111111111111111111, Flag=zzz0
# Compile of TEST_OR.v was successful.
# Compile of OR.v was successful.
# Compile of SET_FLAG.v was successful.
# 3 compiles, 0 failed with no errors.
vsim work.TEST_OR
# End time: 11:15:39 on Nov 16,2020, Elapsed time: 0:02:33
# Errors: 0, Warnings: 10
# vsim work.TEST_OR 
# Start time: 11:15:39 on Nov 16,2020
# Loading work.TEST_OR
# Loading work.OR
# Loading work.SET_FLAG
run -all
#                    0 In1.=00000000000000000000000000000010, In2.=00000000000000000000000000000011, Result=00000000000000000000000000000011, Flag=0000
#                   10 In1.=00000000000000000000000000000001, In2.=11111111111111111111111111111101, Result=11111111111111111111111111111101, Flag=1010
#                   20 In1.=11111111111111111111111111111010, In2.=11111111111111111111111111111110, Result=11111111111111111111111111111110, Flag=1010
#                   30 In1.=11111111111111111111111111111111, In2.=00000000000000000000000000001001, Result=11111111111111111111111111111111, Flag=1010
#                   40 In1.=10101010101010101010101010101010, In2.=00000000111111111100000000000000, Result=10101010111111111110101010101010, Flag=1010
#                   50 In1.=00000000000000000000000000101101, In2.=11111111111111111111111111010011, Result=11111111111111111111111111111111, Flag=1010
quit -sim
# End time: 11:17:02 on Nov 16,2020, Elapsed time: 0:01:23
# Errors: 0, Warnings: 1
# reading C:/intelFPGA/20.1/modelsim_ase/win32aloem/../modelsim.ini
# Loading project XOR
# Compile of TEST_XOR.v was successful.
# Compile of XOR.v was successful.
# Compile of SET_FLAG.v was successful.
# 3 compiles, 0 failed with no errors.
vsim work.TEST_XOR
# vsim work.TEST_XOR 
# Start time: 11:18:16 on Nov 16,2020
# Loading work.TEST_XOR
# Loading work.XOR
# Loading work.SET_FLAG
run -all
#                    0 In1.=00000000000000000000000000000010, In2.=00000000000000000000000000000011, Result=00000000000000000000000000000001, Flag=0000
#                   10 In1.=11110000111100001111000011110000, In2.=11111111000000001111111100000000, Result=00001111111100000000111111110000, Flag=0001
#                   20 In1.=11111111111111111111111111111010, In2.=11111111111111111111111111111110, Result=00000000000000000000000000000100, Flag=0001
#                   30 In1.=11111111111111111111111111111111, In2.=00000000000000000000000000001001, Result=11111111111111111111111111110110, Flag=1010
#                   40 In1.=00000000000011110100001001000000, In2.=01111111111111111111111111111111, Result=01111111111100001011110110111111, Flag=0000
#                   50 In1.=00000000000000000000000000000100, In2.=11111111111111111111111111111100, Result=11111111111111111111111111111000, Flag=1010
quit -sim
# End time: 11:18:55 on Nov 16,2020, Elapsed time: 0:00:39
# Errors: 0, Warnings: 7
# reading C:/intelFPGA/20.1/modelsim_ase/win32aloem/../modelsim.ini
# Loading project LSL
# Compile of TEST_LSL.v was successful.
# Compile of LSL.v was successful.
# Compile of SET_FLAG.v was successful.
# 3 compiles, 0 failed with no errors.
vsim work.Test_LSL
# vsim work.Test_LSL 
# Start time: 11:28:32 on Nov 16,2020
# Loading work.Test_LSL
# Loading work.LSL
# Loading work.SET_FLAG
# ** Warning: (vsim-3015) [PCDPC] - Port size (32) does not match connection size (4) for port 'In2'. The port definition is at: D:/Documents/GitHub/ENGR_468_Project/ALU/SET_FLAG/SET_FLAG.v(1).
#    Time: 0 ps  Iteration: 0  Instance: /Test_LSL/lsl/set File: D:/Documents/GitHub/ENGR_468_Project/ALU/LSL/LSL.v Line: 16
run -all
#                    0 In1.=00000000000000000000000000000011, In2.=0001, Result=00000000000000000000000000000110, Flag=0000
#                   10 In1.=00000000000000000000000000000001, In2.=0010, Result=00000000000000000000000000000100, Flag=0000
#                   20 In1.=11111111111111111111111111111010, In2.=0100, Result=11111111111111111111111110100000, Flag=0000
#                   30 In1.=11111111111111111111111111111111, In2.=1001, Result=11111111111111111111111000000000, Flag=1000
#                   40 In1.=00000000000000000000000000001010, In2.=1010, Result=00000000000000000010100000000000, Flag=0000
#                   50 In1.=00000000000000000000000000010000, In2.=0010, Result=00000000000000000000000001000000, Flag=0000
# Compile of TEST_LSL.v was successful.
# Compile of LSL.v was successful.
# Compile of SET_FLAG.v was successful.
# 3 compiles, 0 failed with no errors.
vsim work.Test_LSL
# End time: 11:43:42 on Nov 16,2020, Elapsed time: 0:15:10
# Errors: 0, Warnings: 9
# vsim work.Test_LSL 
# Start time: 11:43:42 on Nov 16,2020
# Loading work.Test_LSL
# Loading work.LSL
# Loading work.SET_FLAG
# ** Warning: (vsim-3015) [PCDPC] - Port size (32) does not match connection size (4) for port 'In2'. The port definition is at: D:/Documents/GitHub/ENGR_468_Project/ALU/SET_FLAG/SET_FLAG.v(1).
#    Time: 0 ps  Iteration: 0  Instance: /Test_LSL/lsl/set File: D:/Documents/GitHub/ENGR_468_Project/ALU/LSL/LSL.v Line: 16
run -all
#                    0 In1.=00000000000000000000000000000011, In2.=0001, Result=00000000000000000000000000000110, Flag=0010
#                   10 In1.=00000000000000000000000000000001, In2.=0010, Result=00000000000000000000000000000100, Flag=0000
#                   20 In1.=11111111111111111111111111111010, In2.=0100, Result=11111111111111111111111110100000, Flag=0000
#                   30 In1.=11111111111111111111111111111111, In2.=1001, Result=11111111111111111111111000000000, Flag=10x0
#                   40 In1.=00000000000000000000000000001010, In2.=1010, Result=00000000000000000010100000000000, Flag=0000
#                   50 In1.=00000000000000000000000000010000, In2.=0010, Result=00000000000000000000000001000000, Flag=0000
# Compile of LSL.v was successful.
# Compile of TEST_LSL.v was successful.
# Compile of LSL.v was successful.
# Compile of SET_FLAG.v was successful.
# 3 compiles, 0 failed with no errors.
vsim work.Test_LSL
# End time: 12:00:11 on Nov 16,2020, Elapsed time: 0:16:29
# Errors: 0, Warnings: 4
# vsim work.Test_LSL 
# Start time: 12:00:11 on Nov 16,2020
# Loading work.Test_LSL
# Loading work.LSL
# Loading work.SET_FLAG
# ** Warning: (vsim-3015) [PCDPC] - Port size (32) does not match connection size (4) for port 'In2'. The port definition is at: D:/Documents/GitHub/ENGR_468_Project/ALU/SET_FLAG/SET_FLAG.v(1).
#    Time: 0 ps  Iteration: 0  Instance: /Test_LSL/lsl/set File: D:/Documents/GitHub/ENGR_468_Project/ALU/LSL/LSL.v Line: 16
run -all
#                    0 In1.=00000000000000000000000000000011, In2.=0001, Result=00000000000000000000000000000110, Flag=0000
#                   10 In1.=00000000000000000000000000000001, In2.=0010, Result=00000000000000000000000000000100, Flag=0000
#                   20 In1.=11111111111111111111111111111010, In2.=0100, Result=11111111111111111111111110100000, Flag=0000
#                   30 In1.=11111111111111111111111111111111, In2.=1001, Result=11111111111111111111111000000000, Flag=1010
#                   40 In1.=00000000000000000000000000001010, In2.=1010, Result=00000000000000000010100000000000, Flag=0000
#                   50 In1.=00000000000000000000000000010000, In2.=0010, Result=00000000000000000000000001000000, Flag=0000
# Compile of TEST_LSL.v was successful.
# Compile of LSL.v was successful.
# Compile of SET_FLAG.v was successful.
# 3 compiles, 0 failed with no errors.
vsim work.Test_LSL
# End time: 12:00:49 on Nov 16,2020, Elapsed time: 0:00:38
# Errors: 0, Warnings: 3
# vsim work.Test_LSL 
# Start time: 12:00:49 on Nov 16,2020
# Loading work.Test_LSL
# Loading work.LSL
# Loading work.SET_FLAG
# ** Warning: (vsim-3015) [PCDPC] - Port size (32) does not match connection size (4) for port 'In2'. The port definition is at: D:/Documents/GitHub/ENGR_468_Project/ALU/SET_FLAG/SET_FLAG.v(1).
#    Time: 0 ps  Iteration: 0  Instance: /Test_LSL/lsl/set File: D:/Documents/GitHub/ENGR_468_Project/ALU/LSL/LSL.v Line: 16
# Load canceled
run -all
#                    0 In1.=00000000000000000000000000000011, In2.=0001, Result=00000000000000000000000000000110, Flag=0000
#                   10 In1.=00000000000000000000000000000001, In2.=0010, Result=00000000000000000000000000000100, Flag=0000
#                   20 In1.=11111111111111111111111111111010, In2.=0100, Result=11111111111111111111111110100000, Flag=0000
#                   30 In1.=11111111111111111111111111111111, In2.=1001, Result=11111111111111111111111000000000, Flag=1010
#                   40 In1.=00000000000000000000000000001010, In2.=1010, Result=00000000000000000010100000000000, Flag=0000
#                   50 In1.=00000000000000000000000000010000, In2.=0010, Result=00000000000000000000000001000000, Flag=0000
# Compile of TEST_LSL.v was successful.
# Compile of LSL.v was successful.
# Compile of SET_FLAG.v was successful.
# 3 compiles, 0 failed with no errors.
vsim work.Test_LSL
# End time: 12:01:36 on Nov 16,2020, Elapsed time: 0:00:47
# Errors: 0, Warnings: 3
# vsim work.Test_LSL 
# Start time: 12:01:36 on Nov 16,2020
# Loading work.Test_LSL
# Loading work.LSL
# Loading work.SET_FLAG
# ** Warning: (vsim-3015) [PCDPC] - Port size (32) does not match connection size (4) for port 'In2'. The port definition is at: D:/Documents/GitHub/ENGR_468_Project/ALU/SET_FLAG/SET_FLAG.v(1).
#    Time: 0 ps  Iteration: 0  Instance: /Test_LSL/lsl/set File: D:/Documents/GitHub/ENGR_468_Project/ALU/LSL/LSL.v Line: 16
run -all
#                    0 In1.=00000000000000000000000000000011, In2.=0001, Result=00000000000000000000000000000110, Flag=0000
#                   10 In1.=00000000000000000000000000000001, In2.=0010, Result=00000000000000000000000000000100, Flag=0000
#                   20 In1.=11111111111111111111111111111010, In2.=0100, Result=11111111111111111111111110100000, Flag=0000
#                   30 In1.=11111111111111111111111111111111, In2.=1001, Result=11111111111111111111111000000000, Flag=1010
#                   40 In1.=00000000000000000000000000001010, In2.=1010, Result=00000000000000000010100000000000, Flag=0000
#                   50 In1.=00000000000000000000000000010000, In2.=0010, Result=00000000000000000000000001000000, Flag=0000
# Compile of TEST_LSL.v was successful.
# Compile of LSL.v was successful.
# Compile of SET_FLAG.v was successful.
# 3 compiles, 0 failed with no errors.
vsim work.Test_LSL
# End time: 12:09:36 on Nov 16,2020, Elapsed time: 0:08:00
# Errors: 0, Warnings: 3
# vsim work.Test_LSL 
# Start time: 12:09:36 on Nov 16,2020
# Loading work.Test_LSL
# Loading work.LSL
# Loading work.SET_FLAG
# ** Warning: (vsim-3015) [PCDPC] - Port size (32) does not match connection size (4) for port 'In2'. The port definition is at: D:/Documents/GitHub/ENGR_468_Project/ALU/SET_FLAG/SET_FLAG.v(1).
#    Time: 0 ps  Iteration: 0  Instance: /Test_LSL/lsl/set File: D:/Documents/GitHub/ENGR_468_Project/ALU/LSL/LSL.v Line: 16
run -all
#                    0 In1.=00000000000000000000000000000011, In2.=0001, Result=00000000000000000000000000000110, Flag=0000
#                   10 In1.=00000000000000000000000000000001, In2.=0010, Result=00000000000000000000000000000100, Flag=0000
#                   20 In1.=11111111111111111111111111111010, In2.=0100, Result=11111111111111111111111110100000, Flag=0000
#                   30 In1.=11111111111111111111111111111111, In2.=1001, Result=11111111111111111111111000000000, Flag=10x0
#                   40 In1.=00000000000000000000000000001010, In2.=1010, Result=00000000000000000010100000000000, Flag=0000
#                   50 In1.=00000000000000000000000000010000, In2.=0010, Result=00000000000000000000000001000000, Flag=0000
# Compile of TEST_LSL.v was successful.
# Compile of LSL.v was successful.
# Compile of SET_FLAG.v was successful.
# 3 compiles, 0 failed with no errors.
vsim work.Test_LSL
# End time: 12:09:55 on Nov 16,2020, Elapsed time: 0:00:19
# Errors: 0, Warnings: 3
# vsim work.Test_LSL 
# Start time: 12:09:55 on Nov 16,2020
# Loading work.Test_LSL
# Loading work.LSL
# Loading work.SET_FLAG
# ** Warning: (vsim-3015) [PCDPC] - Port size (32) does not match connection size (4) for port 'In2'. The port definition is at: D:/Documents/GitHub/ENGR_468_Project/ALU/SET_FLAG/SET_FLAG.v(1).
#    Time: 0 ps  Iteration: 0  Instance: /Test_LSL/lsl/set File: D:/Documents/GitHub/ENGR_468_Project/ALU/LSL/LSL.v Line: 16
run -all
#                    0 In1.=00000000000000000000000000000011, In2.=0001, Result=00000000000000000000000000000110, Flag=0000
#                   10 In1.=00000000000000000000000000000001, In2.=0010, Result=00000000000000000000000000000100, Flag=0010
#                   20 In1.=11111111111111111111111111111010, In2.=0100, Result=11111111111111111111111110100000, Flag=0000
#                   30 In1.=11111111111111111111111111111111, In2.=1001, Result=11111111111111111111111000000000, Flag=1000
#                   40 In1.=00000000000000000000000000001010, In2.=1010, Result=00000000000000000010100000000000, Flag=0010
#                   50 In1.=00000000000000000000000000010000, In2.=0010, Result=00000000000000000000000001000000, Flag=0000
# Compile of TEST_LSL.v was successful.
# Compile of LSL.v was successful.
# Compile of SET_FLAG.v was successful.
# 3 compiles, 0 failed with no errors.
vsim work.Test_LSL
# End time: 12:16:29 on Nov 16,2020, Elapsed time: 0:06:34
# Errors: 0, Warnings: 3
# vsim work.Test_LSL 
# Start time: 12:16:29 on Nov 16,2020
# Loading work.Test_LSL
# Loading work.LSL
# Loading work.SET_FLAG
# ** Warning: (vsim-3015) [PCDPC] - Port size (32) does not match connection size (4) for port 'In2'. The port definition is at: D:/Documents/GitHub/ENGR_468_Project/ALU/SET_FLAG/SET_FLAG.v(1).
#    Time: 0 ps  Iteration: 0  Instance: /Test_LSL/lsl/set File: D:/Documents/GitHub/ENGR_468_Project/ALU/LSL/LSL.v Line: 16
run -all
#                    0 In1.=00000000000000000000000000000011, In2.=0001, Result=00000000000000000000000000000110, Flag=00x0
#                   10 In1.=00000000000000000000000000000001, In2.=0010, Result=00000000000000000000000000000100, Flag=00x0
#                   20 In1.=11111111111111111111111111111010, In2.=0100, Result=11111111111111111111111110100000, Flag=0000
#                   30 In1.=11111111111111111111111111111111, In2.=1001, Result=11111111111111111111111000000000, Flag=10x0
#                   40 In1.=00000000000000000000000000001010, In2.=1010, Result=00000000000000000010100000000000, Flag=00x0
#                   50 In1.=00000000000000000000000000010000, In2.=0010, Result=00000000000000000000000001000000, Flag=00x0
# Compile of TEST_LSL.v was successful.
# Compile of LSL.v was successful.
# Compile of SET_FLAG.v was successful.
# 3 compiles, 0 failed with no errors.
vsim work.Test_LSL
# End time: 12:17:25 on Nov 16,2020, Elapsed time: 0:00:56
# Errors: 0, Warnings: 3
# vsim work.Test_LSL 
# Start time: 12:17:25 on Nov 16,2020
# Loading work.Test_LSL
# Loading work.LSL
# Loading work.SET_FLAG
# ** Warning: (vsim-3015) [PCDPC] - Port size (32) does not match connection size (4) for port 'In2'. The port definition is at: D:/Documents/GitHub/ENGR_468_Project/ALU/SET_FLAG/SET_FLAG.v(1).
#    Time: 0 ps  Iteration: 0  Instance: /Test_LSL/lsl/set File: D:/Documents/GitHub/ENGR_468_Project/ALU/LSL/LSL.v Line: 16
run -all
#                    0 In1.=00000000000000000000000000000011, In2.=0001, Result=00000000000000000000000000000110, Flag=00x0
#                   10 In1.=00000000000000000000000000000001, In2.=0010, Result=00000000000000000000000000000100, Flag=00x0
#                   20 In1.=11111111111111111111111111111010, In2.=0100, Result=11111111111111111111111110100000, Flag=0000
#                   30 In1.=11111111111111111111111111111111, In2.=1001, Result=11111111111111111111111000000000, Flag=10x0
#                   40 In1.=00000000000000000000000000001010, In2.=1010, Result=00000000000000000010100000000000, Flag=00x0
#                   50 In1.=00000000000000000000000000010000, In2.=0010, Result=00000000000000000000000001000000, Flag=00x0
# Compile of TEST_LSL.v was successful.
# Compile of LSL.v was successful.
# Compile of SET_FLAG.v was successful.
# 3 compiles, 0 failed with no errors.
vsim work.Test_LSL
# End time: 12:18:18 on Nov 16,2020, Elapsed time: 0:00:53
# Errors: 0, Warnings: 3
# vsim work.Test_LSL 
# Start time: 12:18:18 on Nov 16,2020
# Loading work.Test_LSL
# Loading work.LSL
# Loading work.SET_FLAG
# ** Warning: (vsim-3015) [PCDPC] - Port size (32) does not match connection size (4) for port 'In2'. The port definition is at: D:/Documents/GitHub/ENGR_468_Project/ALU/SET_FLAG/SET_FLAG.v(1).
#    Time: 0 ps  Iteration: 0  Instance: /Test_LSL/lsl/set File: D:/Documents/GitHub/ENGR_468_Project/ALU/LSL/LSL.v Line: 16
run -all
#                    0 In1.=00000000000000000000000000000011, In2.=0001, Result=00000000000000000000000000000110, Flag=00x0
#                   10 In1.=00000000000000000000000000000001, In2.=0010, Result=00000000000000000000000000000100, Flag=00x0
#                   20 In1.=11111111111111111111111111111010, In2.=0100, Result=11111111111111111111111110100000, Flag=0000
#                   30 In1.=11111111111111111111111111111111, In2.=1001, Result=11111111111111111111111000000000, Flag=10x0
#                   40 In1.=00000000000000000000000000001010, In2.=1010, Result=00000000000000000010100000000000, Flag=00x0
#                   50 In1.=00000000000000000000000000010000, In2.=0010, Result=00000000000000000000000001000000, Flag=00x0
# Compile of TEST_LSL.v was successful.
# Compile of LSL.v was successful.
# Compile of SET_FLAG.v was successful.
# 3 compiles, 0 failed with no errors.
vsim work.Test_LSL
# End time: 12:19:30 on Nov 16,2020, Elapsed time: 0:01:12
# Errors: 0, Warnings: 3
# vsim work.Test_LSL 
# Start time: 12:19:30 on Nov 16,2020
# Loading work.Test_LSL
# Loading work.LSL
# Loading work.SET_FLAG
# ** Warning: (vsim-3015) [PCDPC] - Port size (32) does not match connection size (4) for port 'In2'. The port definition is at: D:/Documents/GitHub/ENGR_468_Project/ALU/SET_FLAG/SET_FLAG.v(1).
#    Time: 0 ps  Iteration: 0  Instance: /Test_LSL/lsl/set File: D:/Documents/GitHub/ENGR_468_Project/ALU/LSL/LSL.v Line: 16
run -all
#                    0 In1.=00000000000000000000000000000011, In2.=0001, Result=00000000000000000000000000000110, Flag=0000
#                   10 In1.=00000000000000000000000000000001, In2.=0010, Result=00000000000000000000000000000100, Flag=0000
#                   20 In1.=11111111111111111111111111111010, In2.=0100, Result=11111111111111111111111110100000, Flag=0000
#                   30 In1.=11111111111111111111111111111111, In2.=1001, Result=11111111111111111111111000000000, Flag=1010
#                   40 In1.=00000000000000000000000000001010, In2.=1010, Result=00000000000000000010100000000000, Flag=0000
#                   50 In1.=00000000000000000000000000010000, In2.=0010, Result=00000000000000000000000001000000, Flag=0000
# Compile of TEST_LSL.v was successful.
# Compile of LSL.v was successful.
# Compile of SET_FLAG.v was successful.
# 3 compiles, 0 failed with no errors.
vsim work.Test_LSL
# End time: 12:27:55 on Nov 16,2020, Elapsed time: 0:08:25
# Errors: 0, Warnings: 3
# vsim work.Test_LSL 
# Start time: 12:27:55 on Nov 16,2020
# Loading work.Test_LSL
# Loading work.LSL
# Loading work.SET_FLAG
# ** Warning: (vsim-3015) [PCDPC] - Port size (32) does not match connection size (4) for port 'In2'. The port definition is at: D:/Documents/GitHub/ENGR_468_Project/ALU/SET_FLAG/SET_FLAG.v(1).
#    Time: 0 ps  Iteration: 0  Instance: /Test_LSL/lsl/set File: D:/Documents/GitHub/ENGR_468_Project/ALU/LSL/LSL.v Line: 16
run -all
#                    0 In1.=00000000000000000000000000000011, In2.=0001, Result=00000000000000000000000000000110, Flag=0000
#                   10 In1.=00000000000000000000000000000001, In2.=0010, Result=00000000000000000000000000000100, Flag=0000
#                   20 In1.=11111111111111111111111111111010, In2.=0100, Result=11111111111111111111111110100000, Flag=0000
#                   30 In1.=11111111111111111111111111111111, In2.=1001, Result=11111111111111111111111000000000, Flag=1010
#                   40 In1.=00000000000000000000000000001010, In2.=1010, Result=00000000000000000010100000000000, Flag=0000
#                   50 In1.=00000000000000000000000000010000, In2.=0010, Result=00000000000000000000000001000000, Flag=0000
# Compile of TEST_LSL.v was successful.
# Compile of LSL.v was successful.
# Compile of SET_FLAG.v was successful.
# 3 compiles, 0 failed with no errors.
vsim work.Test_LSL
# End time: 12:33:56 on Nov 16,2020, Elapsed time: 0:06:01
# Errors: 0, Warnings: 3
# vsim work.Test_LSL 
# Start time: 12:33:56 on Nov 16,2020
# Loading work.Test_LSL
# Loading work.LSL
# Loading work.SET_FLAG
# ** Warning: (vsim-3015) [PCDPC] - Port size (32) does not match connection size (4) for port 'In2'. The port definition is at: D:/Documents/GitHub/ENGR_468_Project/ALU/SET_FLAG/SET_FLAG.v(1).
#    Time: 0 ps  Iteration: 0  Instance: /Test_LSL/lsl/set File: D:/Documents/GitHub/ENGR_468_Project/ALU/LSL/LSL.v Line: 16
run -all
#                    0 In1.=00000000000000000000000000000011, In2.=0001, Result=00000000000000000000000000000110, Flag=0000
#                   10 In1.=00000000000000000000000000000001, In2.=0010, Result=00000000000000000000000000000100, Flag=0000
#                   20 In1.=11111111111111111111111111111010, In2.=0100, Result=11111111111111111111111110100000, Flag=1010
#                   30 In1.=11111111111111111111111111111111, In2.=1001, Result=11111111111111111111111000000000, Flag=1010
#                   40 In1.=00000000000000000000000000001010, In2.=1010, Result=00000000000000000010100000000000, Flag=0000
#                   50 In1.=00000000000000000000000000010000, In2.=0010, Result=00000000000000000000000001000000, Flag=0000
# Compile of TEST_LSL.v was successful.
# Compile of LSL.v was successful.
# Compile of SET_FLAG.v was successful.
# 3 compiles, 0 failed with no errors.
vsim work.Test_LSL
# End time: 12:38:10 on Nov 16,2020, Elapsed time: 0:04:14
# Errors: 0, Warnings: 3
# vsim work.Test_LSL 
# Start time: 12:38:10 on Nov 16,2020
# Loading work.Test_LSL
# Loading work.LSL
# Loading work.SET_FLAG
# ** Warning: (vsim-3015) [PCDPC] - Port size (32) does not match connection size (4) for port 'In2'. The port definition is at: D:/Documents/GitHub/ENGR_468_Project/ALU/SET_FLAG/SET_FLAG.v(1).
#    Time: 0 ps  Iteration: 0  Instance: /Test_LSL/lsl/set File: D:/Documents/GitHub/ENGR_468_Project/ALU/LSL/LSL.v Line: 16
run -all
#                    0 In1.=00000000000000000000000000000011, In2.=0001, Result=00000000000000000000000000000110, Flag=0000, S=1
#                   10 In1.=10000000000000000000000000000000, In2.=0001, Result=00000000000000000000000000000000, Flag=011x, S=1
#                   20 In1.=11111111111111111111111111111010, In2.=0100, Result=11111111111111111111111110100000, Flag=1010, S=1
#                   30 In1.=11111111111111111111111111111111, In2.=1001, Result=11111111111111111111111000000000, Flag=1010, S=1
#                   40 In1.=00000000000000000000000000001010, In2.=0010, Result=00000000000000000000000000101000, Flag=0000, S=1
#                   50 In1.=00000000000000000000000000010000, In2.=0010, Result=00000000000000000000000001000000, Flag=0000, S=1
# Compile of TEST_LSL.v was successful.
# Compile of LSL.v was successful.
# Compile of SET_FLAG.v was successful.
# 3 compiles, 0 failed with no errors.
vsim work.Test_LSL
# End time: 12:40:32 on Nov 16,2020, Elapsed time: 0:02:22
# Errors: 0, Warnings: 3
# vsim work.Test_LSL 
# Start time: 12:40:32 on Nov 16,2020
# Loading work.Test_LSL
# Loading work.LSL
# Loading work.SET_FLAG
# ** Warning: (vsim-3015) [PCDPC] - Port size (32) does not match connection size (4) for port 'In2'. The port definition is at: D:/Documents/GitHub/ENGR_468_Project/ALU/SET_FLAG/SET_FLAG.v(1).
#    Time: 0 ps  Iteration: 0  Instance: /Test_LSL/lsl/set File: D:/Documents/GitHub/ENGR_468_Project/ALU/LSL/LSL.v Line: 16
run -all
#                    0 In1.=00000000000000000000000000000011, In2.=0001, Result=00000000000000000000000000000110, Flag=0000, S=1
#                   10 In1.=10000000000000000000000000000000, In2.=0001, Result=00000000000000000000000000000000, Flag=011x, S=1
#                   20 In1.=11111111111111111111111111111010, In2.=0100, Result=11111111111111111111111110100000, Flag=1010, S=1
#                   30 In1.=11111111111111111111111111111111, In2.=1001, Result=11111111111111111111111000000000, Flag=1010, S=1
#                   40 In1.=00000000000000000000000000001010, In2.=1101, Result=00000000000000010100000000000000, Flag=0000, S=1
#                   50 In1.=00000000000000000000000000010000, In2.=0010, Result=00000000000000000000000001000000, Flag=0000, S=1
# Compile of TEST_LSL.v was successful.
# Compile of LSL.v was successful.
# Compile of SET_FLAG.v was successful.
# 3 compiles, 0 failed with no errors.
vsim work.Test_LSL
# End time: 12:41:47 on Nov 16,2020, Elapsed time: 0:01:15
# Errors: 0, Warnings: 3
# vsim work.Test_LSL 
# Start time: 12:41:47 on Nov 16,2020
# Loading work.Test_LSL
# Loading work.LSL
# Loading work.SET_FLAG
# ** Warning: (vsim-3015) [PCDPC] - Port size (32) does not match connection size (4) for port 'In2'. The port definition is at: D:/Documents/GitHub/ENGR_468_Project/ALU/SET_FLAG/SET_FLAG.v(1).
#    Time: 0 ps  Iteration: 0  Instance: /Test_LSL/lsl/set File: D:/Documents/GitHub/ENGR_468_Project/ALU/LSL/LSL.v Line: 16
run -all
#                    0 In1.=00000000000000000000000000000011, In2.=0001, Result=00000000000000000000000000000110, Flag=0000, S=1
#                   10 In1.=10000000000000000000000000000000, In2.=0001, Result=00000000000000000000000000000000, Flag=011x, S=1
#                   20 In1.=11111111111111111111111111111010, In2.=0100, Result=11111111111111111111111110100000, Flag=0000, S=0
#                   30 In1.=11111111111111111111111111111111, In2.=1001, Result=11111111111111111111111000000000, Flag=1010, S=1
#                   40 In1.=00000000000000000000000000001010, In2.=1101, Result=00000000000000010100000000000000, Flag=0000, S=1
#                   50 In1.=00000000000000000000000000010000, In2.=0010, Result=00000000000000000000000001000000, Flag=0000, S=1
# Compile of TEST_LSL.v was successful.
# Compile of LSL.v was successful.
# Compile of SET_FLAG.v was successful.
# 3 compiles, 0 failed with no errors.
vsim work.Test_LSL
# End time: 12:54:21 on Nov 16,2020, Elapsed time: 0:12:34
# Errors: 0, Warnings: 3
# vsim work.Test_LSL 
# Start time: 12:54:21 on Nov 16,2020
# Loading work.Test_LSL
# Loading work.LSL
# Loading work.SET_FLAG
# ** Warning: (vsim-3015) [PCDPC] - Port size (32) does not match connection size (4) for port 'In2'. The port definition is at: D:/Documents/GitHub/ENGR_468_Project/ALU/SET_FLAG/SET_FLAG.v(1).
#    Time: 0 ps  Iteration: 0  Instance: /Test_LSL/lsl/set File: D:/Documents/GitHub/ENGR_468_Project/ALU/LSL/LSL.v Line: 16
run -all
#                    0 In1.=00000000000000000000000000000011, In2.=0001, Result=00000000000000000000000000000110, Flag=0000, S=1
#                   10 In1.=10000000000000000000000000000000, In2.=0001, Result=00000000000000000000000000000000, Flag=011x, S=1
#                   20 In1.=11111111111111111111111111111010, In2.=0100, Result=11111111111111111111111110100000, Flag=0000, S=0
#                   30 In1.=11111111111111111111111111111111, In2.=1001, Result=11111111111111111111111000000000, Flag=1010, S=1
#                   40 In1.=00000000000000000000000000001010, In2.=1101, Result=00000000000000010100000000000000, Flag=0000, S=1
#                   50 In1.=01101111111111010111100011111111, In2.=0010, Result=10111111111101011110001111111100, Flag=101x, S=1
quit -sim
# End time: 12:57:08 on Nov 16,2020, Elapsed time: 0:02:47
# Errors: 0, Warnings: 2
# reading C:/intelFPGA/20.1/modelsim_ase/win32aloem/../modelsim.ini
# Loading project MUX
# Compile of TEST_MUX.v was successful.
# Compile of MUX.v was successful.
# 2 compiles, 0 failed with no errors.
vsim work.TEST_MUX
# vsim work.TEST_MUX 
# Start time: 13:01:19 on Nov 16,2020
# Loading work.TEST_MUX
# Loading work.MUX
run -all
#                    0MUX Testbench
#                    0 In1.=         1, In2.=         2, In3.=         3, In4.=         4, In5.=         5, In6.=         6, In7.=         7, In8.=         8, In9.=         9, In10.=        10, In11.=        11, In12.=        12, In13.=        13, In14.=        14, In15.=        15, In16.=        16, Sel= 1, out.=         2
#                   10 In1.=         1, In2.=         2, In3.=         3, In4.=         4, In5.=         5, In6.=         6, In7.=         7, In8.=         8, In9.=         9, In10.=        10, In11.=        11, In12.=        12, In13.=        13, In14.=        14, In15.=        15, In16.=        16, Sel= 2, out.=         3
#                   20 In1.=         1, In2.=         2, In3.=         3, In4.=         4, In5.=         5, In6.=         6, In7.=         7, In8.=         8, In9.=         9, In10.=        10, In11.=        11, In12.=        12, In13.=        13, In14.=        14, In15.=        15, In16.=        16, Sel= 3, out.=         4
#                   30 In1.=         1, In2.=         2, In3.=         3, In4.=         4, In5.=         5, In6.=         6, In7.=         7, In8.=         8, In9.=         9, In10.=        10, In11.=        11, In12.=        12, In13.=        13, In14.=        14, In15.=        15, In16.=        16, Sel= 5, out.=         6
#                   40 In1.=         1, In2.=         2, In3.=         3, In4.=         4, In5.=         5, In6.=         6, In7.=         7, In8.=         8, In9.=         9, In10.=        10, In11.=        11, In12.=        12, In13.=        13, In14.=        14, In15.=        15, In16.=        16, Sel= 8, out.=         9
